<?xml version="1.0" encoding="UTF-8"?>
<OAI-PMH xmlns:xsi="http://www.w3.org/2001/XMLSchema-instance" xmlns="http://www.openarchives.org/OAI/2.0/" xsi:schemaLocation="http://www.openarchives.org/OAI/2.0/ http://www.openarchives.org/OAI/2.0/OAI-PMH.xsd"><responseDate>2023-07-17T11:00:32Z</responseDate><request verb="ListIdentifiers" metadataPrefix="oai_dc" set="all">http://bdr.oai.bsb-muenchen.de/OAIHandler</request><ListIdentifiers><header><identifier>oai:bdr.oai.bsb-muenchen.de:all:BDR-BSBe10002911-2646</identifier><datestamp>2022-12-18</datestamp><setSpec>all</setSpec></header><header><identifier>oai:bdr.oai.bsb-muenchen.de:all:BDR-BSBe10002914-50771</identifier><datestamp>2022-12-18</datestamp><setSpec>all</setSpec></header><header><identifier>oai:bdr.oai.bsb-muenchen.de:all:BDR-BSBe10002917-33360</identifier><datestamp>2022-12-18</datestamp><setSpec>all</setSpec></header><header><identifier>oai:bdr.oai.bsb-muenchen.de:all:BDR-BSBe10002919-43613</identifier><datestamp>2022-12-18</datestamp><setSpec>all</setSpec></header><header><identifier>oai:bdr.oai.bsb-muenchen.de:all:BDR-BSBe10002921-2898</identifier><datestamp>2022-12-18</datestamp><setSpec>all</setSpec></header><header><identifier>oai:bdr.oai.bsb-muenchen.de:all:BDR-BSBe10002933-45997</identifier><datestamp>2022-12-18</datestamp><setSpec>all</setSpec></header><header><identifier>oai:bdr.oai.bsb-muenchen.de:all:BDR-BSBe10002935-15275</identifier><datestamp>2022-12-18</datestamp><setSpec>all</setSpec></header><header><identifier>oai:bdr.oai.bsb-muenchen.de:all:BDR-BSBe10002937-17321</identifier><datestamp>2022-12-18</datestamp><setSpec>all</setSpec></header><header><identifier>oai:bdr.oai.bsb-muenchen.de:all:BDR-BSBe10002940-13659</identifier><datestamp>2022-12-18</datestamp><setSpec>all</setSpec></header><header><identifier>oai:bdr.oai.bsb-muenchen.de:all:BDR-BSBe10002944-50527</identifier><datestamp>2022-12-18</datestamp><setSpec>all</setSpec></header><header><identifier>oai:bdr.oai.bsb-muenchen.de:all:BDR-BSBe10002961-50723</identifier><datestamp>2022-10-19</datestamp><setSpec>all</setSpec></header><header><identifier>oai:bdr.oai.bsb-muenchen.de:all:BDR-BSBe10002964-38444</identifier><datestamp>2022-10-19</datestamp><setSpec>all</setSpec></header><header><identifier>oai:bdr.oai.bsb-muenchen.de:all:BDR-BSBe10002966-46634</identifier><datestamp>2022-10-19</datestamp><setSpec>all</setSpec></header><header><identifier>oai:bdr.oai.bsb-muenchen.de:all:BDR-BSBe10003011-64462</identifier><datestamp>2022-10-19</datestamp><setSpec>all</setSpec></header><header><identifier>oai:bdr.oai.bsb-muenchen.de:all:BDR-BSBe10003013-64246</identifier><datestamp>2022-10-19</datestamp><setSpec>all</setSpec></header><header><identifier>oai:bdr.oai.bsb-muenchen.de:all:BDR-BSBe10003014-64066</identifier><datestamp>2022-10-19</datestamp><setSpec>all</setSpec></header><header><identifier>oai:bdr.oai.bsb-muenchen.de:all:BDR-BSBe10003016-64058</identifier><datestamp>2022-10-19</datestamp><setSpec>all</setSpec></header><header><identifier>oai:bdr.oai.bsb-muenchen.de:all:BDR-BSBe10003019-15279</identifier><datestamp>2022-10-19</datestamp><setSpec>all</setSpec></header><header><identifier>oai:bdr.oai.bsb-muenchen.de:all:BDR-BSBe10003021-65423</identifier><datestamp>2022-10-19</datestamp><setSpec>all</setSpec></header><header><identifier>oai:bdr.oai.bsb-muenchen.de:all:BDR-BSBe10003041-45566</identifier><datestamp>2022-10-19</datestamp><setSpec>all</setSpec></header><header><identifier>oai:bdr.oai.bsb-muenchen.de:all:BDR-BSBe10003048-47161</identifier><datestamp>2022-10-19</datestamp><setSpec>all</setSpec></header><header><identifier>oai:bdr.oai.bsb-muenchen.de:all:BDR-BSBe10003051-29310</identifier><datestamp>2022-10-19</datestamp><setSpec>all</setSpec></header><header><identifier>oai:bdr.oai.bsb-muenchen.de:all:BDR-BSBe10003060-12797</identifier><datestamp>2022-10-19</datestamp><setSpec>all</setSpec></header><header><identifier>oai:bdr.oai.bsb-muenchen.de:all:BDR-BSBe10003062-29052</identifier><datestamp>2022-10-19</datestamp><setSpec>all</setSpec></header><header><identifier>oai:bdr.oai.bsb-muenchen.de:all:BDR-BSBe10003074-46462</identifier><datestamp>2022-10-19</datestamp><setSpec>all</setSpec></header><header><identifier>oai:bdr.oai.bsb-muenchen.de:all:BDR-BSBe10003085-13176</identifier><datestamp>2022-10-19</datestamp><setSpec>all</setSpec></header><header><identifier>oai:bdr.oai.bsb-muenchen.de:all:BDR-BSBe10003087-13056</identifier><datestamp>2022-10-19</datestamp><setSpec>all</setSpec></header><header><identifier>oai:bdr.oai.bsb-muenchen.de:all:BDR-BSBe10003225-45358</identifier><datestamp>2022-10-19</datestamp><setSpec>all</setSpec></header><header><identifier>oai:bdr.oai.bsb-muenchen.de:all:BDR-BSBe10003239-37977</identifier><datestamp>2022-10-19</datestamp><setSpec>all</setSpec></header><header><identifier>oai:bdr.oai.bsb-muenchen.de:all:BDR-BSBe10003362-54807</identifier><datestamp>2022-10-19</datestamp><setSpec>all</setSpec></header><header><identifier>oai:bdr.oai.bsb-muenchen.de:all:BDR-BSBe10003363-50708</identifier><datestamp>2022-10-19</datestamp><setSpec>all</setSpec></header><header><identifier>oai:bdr.oai.bsb-muenchen.de:all:BDR-BSBe10005128-43850</identifier><datestamp>2022-10-19</datestamp><setSpec>all</setSpec></header><header><identifier>oai:bdr.oai.bsb-muenchen.de:all:BDR-BSBe10005129-5616</identifier><datestamp>2022-10-19</datestamp><setSpec>all</setSpec></header><header><identifier>oai:bdr.oai.bsb-muenchen.de:all:BDR-BSBe10005249-18455</identifier><datestamp>2022-10-19</datestamp><setSpec>all</setSpec></header><header><identifier>oai:bdr.oai.bsb-muenchen.de:all:BDR-BSBe10005251-49232</identifier><datestamp>2022-10-19</datestamp><setSpec>all</setSpec></header><header><identifier>oai:bdr.oai.bsb-muenchen.de:all:BDR-BSBe10005252-848</identifier><datestamp>2022-10-19</datestamp><setSpec>all</setSpec></header><header><identifier>oai:bdr.oai.bsb-muenchen.de:all:BDR-BSBe10005253-33361</identifier><datestamp>2022-10-19</datestamp><setSpec>all</setSpec></header><header><identifier>oai:bdr.oai.bsb-muenchen.de:all:BDR-BSBe10006912-48626</identifier><datestamp>2022-10-19</datestamp><setSpec>all</setSpec></header><header><identifier>oai:bdr.oai.bsb-muenchen.de:all:BDR-BSBe10006913-44529</identifier><datestamp>2022-10-19</datestamp><setSpec>all</setSpec></header><header><identifier>oai:bdr.oai.bsb-muenchen.de:all:BDR-BSBe10006914-56824</identifier><datestamp>2022-10-19</datestamp><setSpec>all</setSpec></header><header><identifier>oai:bdr.oai.bsb-muenchen.de:all:BDR-BSBe10006915-52731</identifier><datestamp>2022-10-19</datestamp><setSpec>all</setSpec></header><header><identifier>oai:bdr.oai.bsb-muenchen.de:all:BDR-BSBe10008125-49304</identifier><datestamp>2022-12-26</datestamp><setSpec>all</setSpec></header><header><identifier>oai:bdr.oai.bsb-muenchen.de:all:BDR-BSBe10009762-43214</identifier><datestamp>2022-10-19</datestamp><setSpec>all</setSpec></header><header><identifier>oai:bdr.oai.bsb-muenchen.de:all:BDR-BSBe10009764-8392</identifier><datestamp>2022-10-19</datestamp><setSpec>all</setSpec></header><header><identifier>oai:bdr.oai.bsb-muenchen.de:all:BDR-BSBe10009765-7369</identifier><datestamp>2022-10-19</datestamp><setSpec>all</setSpec></header><header><identifier>oai:bdr.oai.bsb-muenchen.de:all:BDR-BSBe10009766-22730</identifier><datestamp>2022-10-19</datestamp><setSpec>all</setSpec></header><header><identifier>oai:bdr.oai.bsb-muenchen.de:all:BDR-BSBe10009768-28871</identifier><datestamp>2022-10-19</datestamp><setSpec>all</setSpec></header><header><identifier>oai:bdr.oai.bsb-muenchen.de:all:BDR-BSBe10009772-26675</identifier><datestamp>2022-10-19</datestamp><setSpec>all</setSpec></header><header><identifier>oai:bdr.oai.bsb-muenchen.de:all:BDR-BSBe10009774-57397</identifier><datestamp>2022-10-19</datestamp><setSpec>all</setSpec></header><header><identifier>oai:bdr.oai.bsb-muenchen.de:all:BDR-BSBe10009776-38967</identifier><datestamp>2022-10-19</datestamp><setSpec>all</setSpec></header><header><identifier>oai:bdr.oai.bsb-muenchen.de:all:BDR-BSBe10009779-35899</identifier><datestamp>2022-10-19</datestamp><setSpec>all</setSpec></header><header><identifier>oai:bdr.oai.bsb-muenchen.de:all:BDR-BSBe10009781-10532</identifier><datestamp>2022-10-19</datestamp><setSpec>all</setSpec></header><header><identifier>oai:bdr.oai.bsb-muenchen.de:all:BDR-BSBe10009783-17334</identifier><datestamp>2022-10-19</datestamp><setSpec>all</setSpec></header><header><identifier>oai:bdr.oai.bsb-muenchen.de:all:BDR-BSBe10009784-33091</identifier><datestamp>2022-10-19</datestamp><setSpec>all</setSpec></header><header><identifier>oai:bdr.oai.bsb-muenchen.de:all:BDR-BSBe10009785-16830</identifier><datestamp>2022-10-19</datestamp><setSpec>all</setSpec></header><header><identifier>oai:bdr.oai.bsb-muenchen.de:all:BDR-BSBe10009786-16570</identifier><datestamp>2022-10-19</datestamp><setSpec>all</setSpec></header><header><identifier>oai:bdr.oai.bsb-muenchen.de:all:BDR-BSBe10009787-32839</identifier><datestamp>2022-10-19</datestamp><setSpec>all</setSpec></header><header><identifier>oai:bdr.oai.bsb-muenchen.de:all:BDR-BSBe10009788-34131</identifier><datestamp>2022-10-19</datestamp><setSpec>all</setSpec></header><header><identifier>oai:bdr.oai.bsb-muenchen.de:all:BDR-BSBe10009789-17838</identifier><datestamp>2022-10-19</datestamp><setSpec>all</setSpec></header><header><identifier>oai:bdr.oai.bsb-muenchen.de:all:BDR-BSBe10009791-846</identifier><datestamp>2022-10-19</datestamp><setSpec>all</setSpec></header><header><identifier>oai:bdr.oai.bsb-muenchen.de:all:BDR-BSBe10009792-586</identifier><datestamp>2022-10-19</datestamp><setSpec>all</setSpec></header><header><identifier>oai:bdr.oai.bsb-muenchen.de:all:BDR-BSBe10009793-49847</identifier><datestamp>2022-10-19</datestamp><setSpec>all</setSpec></header><header><identifier>oai:bdr.oai.bsb-muenchen.de:all:BDR-BSBe10009794-66</identifier><datestamp>2022-10-19</datestamp><setSpec>all</setSpec></header><header><identifier>oai:bdr.oai.bsb-muenchen.de:all:BDR-BSBe10009795-49343</identifier><datestamp>2022-10-19</datestamp><setSpec>all</setSpec></header><header><identifier>oai:bdr.oai.bsb-muenchen.de:all:BDR-BSBe10009796-37628</identifier><datestamp>2022-10-19</datestamp><setSpec>all</setSpec></header><header><identifier>oai:bdr.oai.bsb-muenchen.de:all:BDR-BSBe10009797-20993</identifier><datestamp>2022-10-19</datestamp><setSpec>all</setSpec></header><header><identifier>oai:bdr.oai.bsb-muenchen.de:all:BDR-BSBe10009798-22293</identifier><datestamp>2022-10-19</datestamp><setSpec>all</setSpec></header><header><identifier>oai:bdr.oai.bsb-muenchen.de:all:BDR-BSBe10009800-23101</identifier><datestamp>2022-10-19</datestamp><setSpec>all</setSpec></header><header><identifier>oai:bdr.oai.bsb-muenchen.de:all:BDR-BSBe10009801-39616</identifier><datestamp>2022-10-19</datestamp><setSpec>all</setSpec></header><header><identifier>oai:bdr.oai.bsb-muenchen.de:all:BDR-BSBe10009804-39372</identifier><datestamp>2022-10-19</datestamp><setSpec>all</setSpec></header><header><identifier>oai:bdr.oai.bsb-muenchen.de:all:BDR-BSBe10009805-22833</identifier><datestamp>2022-10-19</datestamp><setSpec>all</setSpec></header><header><identifier>oai:bdr.oai.bsb-muenchen.de:all:BDR-BSBe10009806-22581</identifier><datestamp>2022-10-19</datestamp><setSpec>all</setSpec></header><header><identifier>oai:bdr.oai.bsb-muenchen.de:all:BDR-BSBe10009808-40412</identifier><datestamp>2022-10-19</datestamp><setSpec>all</setSpec></header><header><identifier>oai:bdr.oai.bsb-muenchen.de:all:BDR-BSBe10009809-23841</identifier><datestamp>2022-10-19</datestamp><setSpec>all</setSpec></header><header><identifier>oai:bdr.oai.bsb-muenchen.de:all:BDR-BSBe10009811-7105</identifier><datestamp>2022-10-19</datestamp><setSpec>all</setSpec></header><header><identifier>oai:bdr.oai.bsb-muenchen.de:all:BDR-BSBe10009813-55864</identifier><datestamp>2022-10-19</datestamp><setSpec>all</setSpec></header><header><identifier>oai:bdr.oai.bsb-muenchen.de:all:BDR-BSBe10009816-55604</identifier><datestamp>2022-10-19</datestamp><setSpec>all</setSpec></header><header><identifier>oai:bdr.oai.bsb-muenchen.de:all:BDR-BSBe10009818-7389</identifier><datestamp>2022-10-19</datestamp><setSpec>all</setSpec></header><header><identifier>oai:bdr.oai.bsb-muenchen.de:all:BDR-BSBe10009820-6204</identifier><datestamp>2022-10-19</datestamp><setSpec>all</setSpec></header><header><identifier>oai:bdr.oai.bsb-muenchen.de:all:BDR-BSBe10009821-55489</identifier><datestamp>2022-10-19</datestamp><setSpec>all</setSpec></header><header><identifier>oai:bdr.oai.bsb-muenchen.de:all:BDR-BSBe10009823-46870</identifier><datestamp>2022-10-19</datestamp><setSpec>all</setSpec></header><header><identifier>oai:bdr.oai.bsb-muenchen.de:all:BDR-BSBe10042060-12589</identifier><datestamp>2022-10-19</datestamp><setSpec>all</setSpec></header><header><identifier>oai:bdr.oai.bsb-muenchen.de:all:BDR-BSBe10042061-61584</identifier><datestamp>2022-10-19</datestamp><setSpec>all</setSpec></header><header><identifier>oai:bdr.oai.bsb-muenchen.de:all:BDR-BSBe10042063-61864</identifier><datestamp>2022-10-19</datestamp><setSpec>all</setSpec></header><header><identifier>oai:bdr.oai.bsb-muenchen.de:all:BDR-BSBe10042065-12769</identifier><datestamp>2022-10-19</datestamp><setSpec>all</setSpec></header><header><identifier>oai:bdr.oai.bsb-muenchen.de:all:BDR-BSBe10042155-45369</identifier><datestamp>2022-10-19</datestamp><setSpec>all</setSpec></header><header><identifier>oai:bdr.oai.bsb-muenchen.de:all:BDR-BSBe10043239-39133</identifier><datestamp>2022-10-19</datestamp><setSpec>all</setSpec></header><header><identifier>oai:bdr.oai.bsb-muenchen.de:all:BDR-BSBe10043240-50722</identifier><datestamp>2022-10-19</datestamp><setSpec>all</setSpec></header><header><identifier>oai:bdr.oai.bsb-muenchen.de:all:BDR-BSBe10043241-64035</identifier><datestamp>2022-10-19</datestamp><setSpec>all</setSpec></header><header><identifier>oai:bdr.oai.bsb-muenchen.de:all:BDR-BSBe10043334-20364</identifier><datestamp>2022-10-19</datestamp><setSpec>all</setSpec></header><header><identifier>oai:bdr.oai.bsb-muenchen.de:all:BDR-BSBe10044773-59255</identifier><datestamp>2022-10-19</datestamp><setSpec>all</setSpec></header><header><identifier>oai:bdr.oai.bsb-muenchen.de:all:BDR-BSBe10044774-41663</identifier><datestamp>2022-10-19</datestamp><setSpec>all</setSpec></header><header><identifier>oai:bdr.oai.bsb-muenchen.de:all:BDR-BSBe10068318-45457</identifier><datestamp>2022-10-19</datestamp><setSpec>all</setSpec></header><header><identifier>oai:bdr.oai.bsb-muenchen.de:all:BDR-BSBe10068321-9018</identifier><datestamp>2022-10-19</datestamp><setSpec>all</setSpec></header><header><identifier>oai:bdr.oai.bsb-muenchen.de:all:BDR-BSBe10068324-46068</identifier><datestamp>2022-10-19</datestamp><setSpec>all</setSpec></header><header><identifier>oai:bdr.oai.bsb-muenchen.de:all:BDR-BSBe10068326-20915</identifier><datestamp>2022-10-19</datestamp><setSpec>all</setSpec></header><header><identifier>oai:bdr.oai.bsb-muenchen.de:all:BDR-BSBe10068329-24931</identifier><datestamp>2022-10-19</datestamp><setSpec>all</setSpec></header><header><identifier>oai:bdr.oai.bsb-muenchen.de:all:BDR-BSBe10068332-53614</identifier><datestamp>2022-10-19</datestamp><setSpec>all</setSpec></header><header><identifier>oai:bdr.oai.bsb-muenchen.de:all:BDR-BSBe10068335-24998</identifier><datestamp>2022-10-19</datestamp><setSpec>all</setSpec></header><header><identifier>oai:bdr.oai.bsb-muenchen.de:all:BDR-BSBe10068338-46577</identifier><datestamp>2022-10-19</datestamp><setSpec>all</setSpec></header><resumptionToken expirationDate="2023-07-17T23:00:32Z" completeListSize="1493421" cursor="0">TGlzdElkZW50aWZpZXJzOjo6MTAwOjE6MjAyMy0wNy0xN1QyMyUzQTAwJTNBMzJaOjE0OTM0MjE:all:oai_dc</resumptionToken></ListIdentifiers></OAI-PMH>